<svg xmlns="http://www.w3.org/2000/svg" viewBox="0 0 277 922">
    <g fill="none" fill-rule="evenodd">
        <g>
            <path fill="#FFF" d="M18.141 836.429c-.937 4.1-2.404 8.246-4.01 12.126l.006.023c.836 4.18 1.313 8.412 2.143 12.594l.005.022c3.5 1.613 5.325 2.373 9.75 3.425.05.011.098.022.147.031-3.98-9.22-3.857-19.205-8.003-28.369a3.238 3.238 0 0 0-.038.148"/>
            <path fill="#FFF2F3" d="M14.125 848.573c.002-.008.004-.01.007-.018 1.605-3.88 3.072-8.026 4.01-12.126.01-.05.023-.1.037-.148a.013.013 0 0 1-.002-.003l-14.954 9.457c.658-.372 1.45-.512 2.207-.314 3.886 1.012 5.534 1.698 8.695 3.152M16.285 861.194l-.012-.005c-1.847 4.62-2.7 6.886-3.76 11.027a3.271 3.271 0 0 1-1.458 2.008l.014.022 15.13-9.568-.017-.028a3.13 3.13 0 0 1-.148-.031c-4.424-1.052-6.25-1.812-9.749-3.425"/>
            <path fill="#FFDFE1" d="M11.055 874.225a3.27 3.27 0 0 0 1.458-2.009c1.06-4.14 1.913-6.408 3.76-11.027.904-2.258 1.39-3.408 2.372-5.714.89-2.088.563-4.376-.767-5.061a77.147 77.147 0 0 0-3.753-1.842c-3.161-1.453-4.809-2.138-8.696-3.151-.757-.197-1.548-.057-2.206.314l-.176.111c3.997 9.222 3.872 19.21 8.008 28.379"/>
            <g>
                <path fill="#FFF" d="M147.66 890.186c6.785 1.58 13.754 2.185 20.679 2.762l.028.023c5.232 4.177 10.943 7.708 16.222 11.826l.028.023c-.535 5.502-1.579 10.95-3.221 16.233-.025.078-.05.154-.079.23-9.33-12.698-24.814-18.23-33.897-31.148.08.015.16.032.24.05"/>
                <path fill="#FFF2F3" d="M168.37 892.95l-.031-.002c-6.925-.576-13.894-1.182-20.678-2.762a5.267 5.267 0 0 0-.242-.05l-.002-.005 25.972-14.64c-1.078.675-1.938 1.701-2.286 2.914-1.227 4.921-2.1 9.52-2.734 14.545M184.617 904.82l.002-.02c6.363.53 12.61 1.238 18.898 2.35a5.794 5.794 0 0 0 4.086-.67l.02.034c-8.76 4.938-17.52 9.875-26.279 14.814l-.027-.045c.028-.076.054-.152.079-.23 1.642-5.283 2.686-10.731 3.221-16.233"/>
                <path fill="#FFDFE1" d="M207.603 906.48a5.79 5.79 0 0 1-4.086.67c-6.288-1.112-12.535-1.819-18.898-2.351-3.98-.292-6.03-.403-10.145-.616-3.726-.192-6.725-2.253-6.598-4.619.141-2.612.221-3.924.492-6.613l.001-.001a121.698 121.698 0 0 1 2.734-14.545c.348-1.213 1.207-2.24 2.285-2.914l.308-.173c9.31 12.722 24.803 18.252 33.907 31.161"/>
            </g>
            <g>
                <path fill="#FFF" d="M226.21 780.872c-.349 8.066-.332 16.058-.017 24.127l.04.024c7.219 4.335 14.767 8.095 21.975 12.449l.04.024c9.052-1.625 18.097-3.066 27.233-4.122a8.29 8.29 0 0 0 .342-.043c-15.212-13.007-34.45-19.686-49.585-32.798a8.215 8.215 0 0 0-.027.34"/>
                <path fill="#FFF2F3" d="M226.194 805.03a.7.7 0 0 1-.001-.031c-.315-8.069-.332-16.06.017-24.127.007-.113.017-.226.029-.339l-.006-.005-29.57 30.652c1.317-1.254 3.01-2.106 4.85-2.319 8.269-.965 16.497-2.312 24.681-3.832M248.248 817.496l-.038.007c.37 7.21.351 14.41.123 21.625-.084 1.938-1.022 3.815-2.42 5.227l.04.037 29.92-31.014-.05-.047a9.1 9.1 0 0 1-.342.044c-9.136 1.055-18.181 2.496-27.233 4.12"/>
                <path fill="#FFDFE1" d="M245.914 844.355c1.397-1.412 2.335-3.289 2.42-5.227.227-7.215.245-14.414-.124-21.625v-.002h.001c-.194-4.054-.326-6.046-.6-10.017-.25-3.596-4.241-5.764-8.83-4.862-4.19.829-8.385 1.636-12.585 2.406v.001h-.002c-8.184 1.52-16.412 2.867-24.682 3.832-1.839.213-3.532 1.065-4.85 2.32-.14.143-.209.216-.348.361 15.204 13.03 34.45 19.71 49.6 32.813"/>
            </g>
        </g>
    </g>
</svg>
