<?xml version="1.0" encoding="UTF-8"?>
<svg viewBox="0 0 581 509" version="1.1" xmlns="http://www.w3.org/2000/svg" xmlns:xlink="http://www.w3.org/1999/xlink">
    <title>Pukki</title>
    <defs>
        <polygon id="path-1" points="0 0.0395 178.0848 0.0395 178.0848 178.1235 0 178.1235"></polygon>
        <polygon id="path-3" points="0.887496361 0.782 65.0893145 0.782 65.0893145 51.9862992 0.887496361 51.9862992"></polygon>
    </defs>
    <g id="pukki" stroke="none" stroke-width="1" fill="none" fill-rule="evenodd">
        <g id="Group-59">
            <path d="M106.0277,254.5232 C106.0277,155.9932 186.1897,75.8322 284.7207,75.8312 L284.7207,115.8562 C208.2587,115.8572 146.0527,178.0632 146.0527,254.5232 L106.0277,254.5232 Z" id="Fill-17" fill="#D85F71"></path>
            <path d="M72.0521,254.5227 L32.0271,254.5227 C32.0271,115.1887 145.3851,1.8307 284.7201,1.8307 L284.7201,41.8557 C167.4551,41.8557 72.0521,137.2577 72.0521,254.5227" id="Fill-19" fill="#D85F71"></path>
            <path d="M146.0531,254.5227 L106.0281,254.5227 C106.0281,155.9927 186.1891,75.8327 284.7201,75.8317 L284.7201,115.8567 C208.2591,115.8567 146.0531,178.0627 146.0531,254.5227" id="Fill-21" fill="#D85F71"></path>
            <path d="M284.7206,507.1604 C250.6396,507.1604 217.5486,500.4734 186.3656,487.2834 C156.2746,474.5564 129.2626,456.3474 106.0796,433.1644 C82.8966,409.9814 64.6876,382.9694 51.9606,352.8784 C38.7716,321.6954 32.0836,288.6034 32.0836,254.5234 L146.0016,254.5234 C146.0016,291.5764 160.4306,326.4114 186.6316,352.6124 C212.8316,378.8134 247.6676,393.2424 284.7206,393.2424 L284.7206,507.1604 Z" id="Fill-23" fill="#FC5F71"></path>
            <g id="Group-27" transform="translate(0.000000, 201.218000)">
                <mask id="mask-2" fill="white">
                    <use xlink:href="#path-1"></use>
                </mask>
                <g id="Clip-26"></g>
                <path d="M178.0848,89.0815 C178.0848,138.2585 138.2188,178.1235 89.0428,178.1235 C39.8658,178.1235 -0.0002,138.2585 -0.0002,89.0815 C-0.0002,39.9045 39.8658,0.0395 89.0428,0.0395 C138.2188,0.0395 178.0848,39.9045 178.0848,89.0815" id="Fill-25" fill="#FEF6F7" mask="url(#mask-2)"></path>
            </g>
            <path d="M170.8563,280.3948 C170.8563,325.5798 134.2273,362.2088 89.0423,362.2088 C43.8573,362.2088 7.2283,325.5798 7.2283,280.3948 C7.2283,235.2098 43.8573,198.5808 89.0423,198.5808 C134.2273,198.5808 170.8563,235.2098 170.8563,280.3948" id="Fill-28" fill="#FFFFFF"></path>
            <path d="M123.7719,208.4856 L89.0429,208.4856 L54.3139,208.4856 C40.4199,208.4856 29.1579,218.7166 29.1579,231.3386 C29.1579,243.9596 40.4199,254.1906 54.3139,254.1906 C61.4609,254.1906 67.9069,251.4776 72.4869,247.1296 C72.4499,247.5826 72.4179,248.0366 72.4179,248.4996 C72.4179,257.6806 79.8609,265.1246 89.0429,265.1246 C98.2239,265.1246 105.6679,257.6806 105.6679,248.4996 C105.6679,248.0366 105.6349,247.5826 105.5979,247.1296 C110.1779,251.4776 116.6239,254.1906 123.7719,254.1906 C137.6649,254.1906 148.9269,243.9596 148.9269,231.3386 C148.9269,218.7166 137.6649,208.4856 123.7719,208.4856" id="Fill-30" fill="#FEABAF"></path>
            <path d="M66.6029,233.4773 C66.6029,235.8613 64.6699,237.7933 62.2869,237.7933 C59.9029,237.7933 57.9709,235.8613 57.9709,233.4773 C57.9709,231.0933 59.9029,229.1613 62.2869,229.1613 C64.6699,229.1613 66.6029,231.0933 66.6029,233.4773" id="Fill-32" fill="#A24411"></path>
            <path d="M120.1635,233.4773 C120.1635,235.8613 118.2305,237.7933 115.8475,237.7933 C113.4635,237.7933 111.5315,235.8613 111.5315,233.4773 C111.5315,231.0933 113.4635,229.1613 115.8475,229.1613 C118.2305,229.1613 120.1635,231.0933 120.1635,233.4773" id="Fill-34" fill="#A24411"></path>
            <path d="M31.1654,222.3821 C31.1654,222.3821 36.5944,201.7711 45.0904,185.8401 C54.7014,167.8201 75.9664,143.2991 83.8664,135.8971 C86.5144,133.4161 90.7634,133.9651 92.7074,137.0271 C92.7074,137.0271 118.6614,169.1421 140.4224,198.2821 C148.9264,209.6721 146.9194,222.3821 146.9194,222.3821 L31.1654,222.3821 Z" id="Fill-36" fill="#FF4848"></path>
            <path d="M107.1913,121.5827 C107.1913,128.6257 101.4823,134.3357 94.4383,134.3357 C87.3953,134.3357 81.6853,128.6257 81.6853,121.5827 C81.6853,114.5397 87.3953,108.8297 94.4383,108.8297 C101.4823,108.8297 107.1913,114.5397 107.1913,121.5827" id="Fill-38" fill="#FFFFFF"></path>
            <path d="M158.3182,402.9529 C153.5432,408.7569 144.9672,409.5909 139.1642,404.8159 C133.3602,400.0409 132.5262,391.4649 137.3012,385.6609 C142.0762,379.8579 150.6512,379.0239 156.4552,383.7989 C162.2592,388.5739 163.0932,397.1489 158.3182,402.9529" id="Fill-40" fill="#FFFFFF"></path>
            <path d="M200.5189,435.3967 C195.7439,441.2007 187.1679,442.0347 181.3649,437.2597 C175.5609,432.4847 174.7269,423.9087 179.5019,418.1047 C184.2769,412.3017 192.8519,411.4677 198.6559,416.2427 C204.4599,421.0177 205.2939,429.5927 200.5189,435.3967" id="Fill-42" fill="#FFFFFF"></path>
            <path d="M252.3656,455.6413 C247.5906,461.4453 239.0146,462.2793 233.2116,457.5043 C227.4076,452.7293 226.5736,444.1543 231.3486,438.3503 C236.1236,432.5463 244.6986,431.7123 250.5026,436.4873 C256.3066,441.2623 257.1406,449.8383 252.3656,455.6413" id="Fill-44" fill="#FFFFFF"></path>
            <path d="M284.7216,507.218 L264.7076,507.218 L264.7076,393.191 L284.7206,393.191 C361.1826,393.191 423.3876,330.985 423.3876,254.523 L463.4126,254.523 C463.4126,346.289 393.8766,422.122 304.7326,432.103 L304.7326,466.259 C412.6486,456.139 497.3886,365.04 497.3886,254.523 L537.4136,254.523 C537.4136,393.86 424.0566,507.218 284.7216,507.218" id="Fill-46" fill="#D85F71"></path>
            <path d="M284.7206,433.216 L284.7206,393.191 L284.7216,393.191 C361.1826,393.191 423.3876,330.985 423.3876,254.523 L463.4126,254.523 C463.4126,353.055 383.2526,433.216 284.7206,433.216" id="Fill-48" fill="#D85F71"></path>
            <path d="M423.4427,254.5232 L463.4677,254.5232 C463.4677,254.5232 460.1267,215.5982 470.7067,205.0182 C481.2867,194.4392 510.2417,199.0302 506.3437,178.3582 C502.4457,157.6872 460.1267,165.9522 435.6257,175.1842 C411.1247,184.4152 423.4427,254.5232 423.4427,254.5232" id="Fill-50" fill="#89538A"></path>
            <path d="M497.392,254.5232 L537.417,254.5232 C537.417,254.5232 534.076,215.5982 544.656,205.0182 C555.236,194.4392 584.191,199.0302 580.293,178.3582 C576.395,157.6872 534.076,165.9522 509.575,175.1842 C485.075,184.4152 497.392,254.5232 497.392,254.5232" id="Fill-52" fill="#89538A"></path>
            <g id="Group-56" transform="translate(282.000000, 0.218000)">
                <mask id="mask-4" fill="white">
                    <use xlink:href="#path-3"></use>
                </mask>
                <g id="Clip-55"></g>
                <path d="M65.0585,21.5508 C66.6935,-5.4182 2.7205,1.6058 2.7205,1.6058 C2.7205,1.6058 1.2925,4.3328 0.9285,18.9008 C0.5665,33.4688 2.7205,41.6238 2.7205,41.6238 C2.7205,41.6238 4.9465,41.8748 8.5415,42.0938 C8.8605,42.4618 9.2105,42.8068 9.6325,43.0878 L21.5935,51.0668 C24.1345,52.7598 27.5845,52.0478 29.2625,49.4828 C30.8255,47.0918 30.2965,43.9218 28.1645,42.1268 C45.0025,41.0618 64.1485,36.5388 65.0585,21.5508" id="Fill-54" fill="#89538A" mask="url(#mask-4)"></path>
            </g>
            <path d="M347.0585,95.9421 C348.6935,122.8721 284.7205,115.8591 284.7205,115.8591 C284.7205,115.8591 283.2925,113.1361 282.9285,98.5881 C282.5665,84.0411 284.7205,75.8981 284.7205,75.8981 C284.7205,75.8981 286.9465,75.6481 290.5415,75.4281 C290.8605,75.0611 291.2105,74.7171 291.6325,74.4361 L303.5935,66.4691 C306.1345,64.7781 309.5845,65.4891 311.2625,68.0511 C312.8255,70.4381 312.2965,73.6041 310.1645,75.3961 C327.0025,76.4601 346.1485,80.9761 347.0585,95.9421" id="Fill-57" fill="#89538A"></path>
        </g>
    </g>
</svg>